module gitlab.com/remotejob/gochatbrokerv3

go 1.14

require (
	github.com/fsnotify/fsnotify v1.4.9 // indirect
	github.com/gopherjs/gopherjs v0.0.0-20210202160940-bed99a852dfe // indirect
	github.com/gorilla/websocket v1.4.2
	github.com/kr/text v0.2.0 // indirect
	github.com/magiconair/properties v1.8.4 // indirect
	github.com/mitchellh/mapstructure v1.4.1 // indirect
	github.com/pelletier/go-toml v1.8.1 // indirect
	github.com/satori/go.uuid v1.2.0
	github.com/smartystreets/assertions v1.2.0 // indirect
	github.com/spf13/afero v1.5.1 // indirect
	github.com/spf13/cast v1.3.1 // indirect
	github.com/spf13/jwalterweatherman v1.1.0 // indirect
	github.com/spf13/pflag v1.0.5 // indirect
	github.com/spf13/viper v1.7.1
	github.com/stretchr/testify v1.7.0 // indirect
	gitlab.com/remotejob/go-sqlite3 v0.0.0-20200915235054-2ea78db1a600
	golang.org/x/sys v0.0.0-20210124154548-22da62e12c0c // indirect
	golang.org/x/text v0.3.5 // indirect
	gopkg.in/check.v1 v1.0.0-20201130134442-10cb98267c6c // indirect
	gopkg.in/ini.v1 v1.62.0 // indirect
	gopkg.in/yaml.v2 v2.4.0 // indirect
	gopkg.in/yaml.v3 v3.0.0-20210107192922-496545a6307b // indirect

)
